Probability and Statistics Project Report
…
6.2 Data

## # A tibble: 261 x 14
##    Timestamp Username Nama  Prodi Jenis_Kelamin Semester Suka_Baca
##    <chr>     <chr>    <chr> <chr> <chr>            <dbl> <chr>    
##  1 2019/04/~ farras.~ Farr~ Desa~ Pria                 2 Tidak    
##  2 2019/04/~ william~ Will~ Desa~ Pria                 2 Tidak    
##  3 2019/04/~ metta.s~ metta Film  Wanita               6 Ya       
##  4 2019/04/~ bagas.d~ Bagas Desa~ Pria                 2 Tidak    
##  5 2019/04/~ justin.~ Just~ Film  Pria                 4 Tidak    
##  6 2019/04/~ jennie.~ jenn~ Desa~ Wanita               2 Tidak    
##  7 2019/04/~ christa~ Chri~ Desa~ Wanita               2 Ya       
##  8 2019/04/~ anastha~ Anas~ Jurn~ Wanita               2 Ya       
##  9 2019/04/~ rina.ku~ rina  Desa~ Wanita               2 Tidak    
## 10 2019/04/~ alvin.h~ Alvi~ Sist~ Pria                 4 Ya       
## # ... with 251 more rows, and 7 more variables: Alasan_Suka_Baca <chr>,
## #   Durasi_Baca <dbl>, Alasan_Durasi <chr>, Genre <chr>, Hobi <chr>,
## #   Format <chr>, Dana_Baca_Sebulan <dbl>
…
